[
  {
    "name": "Portuguese Green Soup",
    "country": "Portugal"
  },
  {
    "name": "Grilled Sardines",
    "country": "Portugal"
  },
  {
    "name": "Salted Cod with Cream",
    "country": "Portugal"
  }
]
